{
    "name": "test-network-Farmer",
    "version": "1.0.0",
    "isLocal": true,
    "client": {
        "organization": "Farmer",
        "connection": {
            "timeout": {
                "peer": {
                    "endorser": "300"
                }
            }
        }
    },
    "organizations": {
        "Farmer": {
            "mspid": "FarmerMSP",
            "peers": [
                "peer0.farmer",
                "peer1.farmer"
            ],
            "certificateAuthorities": [
                "ca.farmer"
            ]
        }
    },
    "peers": {
        "peer0.farmer": {
            "url": "grpcs://localhost:4444",
            "tlsCACerts": {
                "pem": "-----BEGIN CERTIFICATE-----\nMIICFjCCAb2gAwIBAgIUSBP2W+bHfzMWB12kjNJUs6o/nTwwCgYIKoZIzj0EAwIw\naDELMAkGA1UEBhMCVVMxFzAVBgNVBAgTDk5vcnRoIENhcm9saW5hMRQwEgYDVQQK\nEwtIeXBlcmxlZGdlcjEPMA0GA1UECxMGRmFicmljMRkwFwYDVQQDExBmYWJyaWMt\nY2Etc2VydmVyMB4XDTI0MDUwNjE0NTcwMFoXDTM5MDUwMzE0NTcwMFowaDELMAkG\nA1UEBhMCVVMxFzAVBgNVBAgTDk5vcnRoIENhcm9saW5hMRQwEgYDVQQKEwtIeXBl\ncmxlZGdlcjEPMA0GA1UECxMGRmFicmljMRkwFwYDVQQDExBmYWJyaWMtY2Etc2Vy\ndmVyMFkwEwYHKoZIzj0CAQYIKoZIzj0DAQcDQgAEANuxnlmIB7b8XIv8BBbtzQu6\nNPv/6QII3GecFLvfFXFbJQGD4AZM/47kjaVb8PSq7OxwL4Ku/+MaGIpZtxD8rKNF\nMEMwDgYDVR0PAQH/BAQDAgEGMBIGA1UdEwEB/wQIMAYBAf8CAQEwHQYDVR0OBBYE\nFEPfKDovim7jIbJqAhnXl7+tcKNCMAoGCCqGSM49BAMCA0cAMEQCIA/u/BBjXbyH\nmyuSzyERTZOhBJkq4t6chZAXYcvE1LYWAiAHZ/8RCR/Liqk6B0y7AHi1ZSAO1s8C\nNK4FGwtdYEps+A==\n-----END CERTIFICATE-----\n"
            },
            "grpcOptions": {
                "ssl-target-name-override": "peer0.farmer",
                "hostnameOverride": "peer0.farmer"
            }
        },
        "peer1.farmer": {
            "url": "grpcs://localhost:4454",
            "tlsCACerts": {
                "pem": "-----BEGIN CERTIFICATE-----\nMIICFjCCAb2gAwIBAgIUSBP2W+bHfzMWB12kjNJUs6o/nTwwCgYIKoZIzj0EAwIw\naDELMAkGA1UEBhMCVVMxFzAVBgNVBAgTDk5vcnRoIENhcm9saW5hMRQwEgYDVQQK\nEwtIeXBlcmxlZGdlcjEPMA0GA1UECxMGRmFicmljMRkwFwYDVQQDExBmYWJyaWMt\nY2Etc2VydmVyMB4XDTI0MDUwNjE0NTcwMFoXDTM5MDUwMzE0NTcwMFowaDELMAkG\nA1UEBhMCVVMxFzAVBgNVBAgTDk5vcnRoIENhcm9saW5hMRQwEgYDVQQKEwtIeXBl\ncmxlZGdlcjEPMA0GA1UECxMGRmFicmljMRkwFwYDVQQDExBmYWJyaWMtY2Etc2Vy\ndmVyMFkwEwYHKoZIzj0CAQYIKoZIzj0DAQcDQgAEANuxnlmIB7b8XIv8BBbtzQu6\nNPv/6QII3GecFLvfFXFbJQGD4AZM/47kjaVb8PSq7OxwL4Ku/+MaGIpZtxD8rKNF\nMEMwDgYDVR0PAQH/BAQDAgEGMBIGA1UdEwEB/wQIMAYBAf8CAQEwHQYDVR0OBBYE\nFEPfKDovim7jIbJqAhnXl7+tcKNCMAoGCCqGSM49BAMCA0cAMEQCIA/u/BBjXbyH\nmyuSzyERTZOhBJkq4t6chZAXYcvE1LYWAiAHZ/8RCR/Liqk6B0y7AHi1ZSAO1s8C\nNK4FGwtdYEps+A==\n-----END CERTIFICATE-----\n"
            },
            "grpcOptions": {
                "ssl-target-name-override": "peer1.farmer",
                "hostnameOverride": "peer1.farmer"
            }
        }
    },
    "certificateAuthorities": {
        "ca.farmer": {
            "url": "https://localhost:4400",
            "caName": "ca-farmer",
            "tlsCACerts": {
                "pem": [
                    "-----BEGIN CERTIFICATE-----\nMIICFjCCAb2gAwIBAgIUSBP2W+bHfzMWB12kjNJUs6o/nTwwCgYIKoZIzj0EAwIw\naDELMAkGA1UEBhMCVVMxFzAVBgNVBAgTDk5vcnRoIENhcm9saW5hMRQwEgYDVQQK\nEwtIeXBlcmxlZGdlcjEPMA0GA1UECxMGRmFicmljMRkwFwYDVQQDExBmYWJyaWMt\nY2Etc2VydmVyMB4XDTI0MDUwNjE0NTcwMFoXDTM5MDUwMzE0NTcwMFowaDELMAkG\nA1UEBhMCVVMxFzAVBgNVBAgTDk5vcnRoIENhcm9saW5hMRQwEgYDVQQKEwtIeXBl\ncmxlZGdlcjEPMA0GA1UECxMGRmFicmljMRkwFwYDVQQDExBmYWJyaWMtY2Etc2Vy\ndmVyMFkwEwYHKoZIzj0CAQYIKoZIzj0DAQcDQgAEANuxnlmIB7b8XIv8BBbtzQu6\nNPv/6QII3GecFLvfFXFbJQGD4AZM/47kjaVb8PSq7OxwL4Ku/+MaGIpZtxD8rKNF\nMEMwDgYDVR0PAQH/BAQDAgEGMBIGA1UdEwEB/wQIMAYBAf8CAQEwHQYDVR0OBBYE\nFEPfKDovim7jIbJqAhnXl7+tcKNCMAoGCCqGSM49BAMCA0cAMEQCIA/u/BBjXbyH\nmyuSzyERTZOhBJkq4t6chZAXYcvE1LYWAiAHZ/8RCR/Liqk6B0y7AHi1ZSAO1s8C\nNK4FGwtdYEps+A==\n-----END CERTIFICATE-----\n"
                ]
            },
            "httpOptions": {
                "verify": false
            }
        }
    }
}
